[
{
	"Name":"pistol",
	"MinPower" :  1.0,
	"MaxPower" :  2.0, 
	"Range": 5.0, 
	"EnergyCost" :  1.0,
},
{
	"Name":"digger",
	"EffectType": 3, 
	"MinPower" :  2.0,
	"MaxPower" :  5.0, 
	"Range": 0.5, 
	"EnergyCost" :  1.0,
},
{
	"Name":"rifle",
	"MinPower" :  1.0,
	"MaxPower" :  3.0, 
	"Range": 10.0, 
	"EnergyCost" :  2.0,
},
{
	"Name":"machinegun",
	"MinPower" :  1.0,
	"MaxPower" :  3.0, 
	"Range": 7.0, 
	"ShotSAmount" :  5,
	"ShotSpread" :  1.0, 
	"EnergyCost" :  4.0,
},
{
	"Name":"railgun",
	"EffectType": 5, 
	"MinPower" :  2.0,
	"MaxPower" :  3.0, 
	"Range": 15.0, 
	"EnergyCost" :  2.0,
	"ShotType" : "rail",
},
{
	"Name":"rocketlauncher",
	"EffectType": 3, 
	"MinPower" :  4.0,
	"MaxPower" :  6.0, 
	"EffectSize" : 1, 
	"Range": 10.0, 
	"EnergyCost" :  8.0,
	"ShotType" : "rocket",
},
{
	"Name":"magneticRepulsor",
	"EffectType": 32, 
	"MinPower" :  4.0,
	"MaxPower" :  4.0,
	"Range": 5.0, 
	"EnergyCost" :  2.0,
	"ShotType" : "magnet",
},
{
	"Name":"StrongRepulsor",
	"EffectType": 32, 
	"MinPower" :  8.0,
	"MaxPower" :  8.0,
	"Range": 6.0, 
	"EnergyCost" :  3.0,
	"ShotType" : "magnet",
},
{
	"Name":"medkit",
	"EffectType": 64, 
	"MinPower" :  3.0,
	"MaxPower" :  5.0,
	"EnergyCost" :  2.0,
},
{
	"Name":"AcidSpitter",
	"EffectType": 17,  
	"MinPower" :  1.0,
	"MaxPower" :  1.0,
	"Range": 4.0, 
	"EnergyCost" :  1.0,
	"ShotType":"slimeball",
},
{
	"Name":"AcidLauncher",
	"EffectType": 17, 
	"MinPower" :  2.0,
	"MaxPower" :  3.0,
	"EnergyCost" :  2.0,
	"Range": 7.0, 
	"ShotType":"slimeball",
},
{
	"Name":"AcidSprayer",
	"EffectType": 17, 
	"MinPower" :  1.0,
	"MaxPower" :  2.0,
	"EnergyCost" :  2.0,
	"Range": 5.0, 
	"ShotsAmount" : 3.0,
	"ShotType":"slimeball",
	"ShotSpread" : 1.5,
},
{
	"Name":"AcidDeluge",
	"EffectType": 17, 
	"MinPower" :  2.0,
	"MaxPower" :  2.0,
	"EnergyCost" :  4.0,
	"Range": 6.0, 
	"ShotsAmount" : 7.0,
	"ShotType":"slimeball",
	"ShotSpread" : 2.0,
},
{
	"Name":"AcidBomber",
	"EffectType": 17, 
	"MinPower" :  1.0,
	"MaxPower" :  2.0,
	"EnergyCost" :  4.0,
	"EffectSize" : 1,
	"Range" : 9.0,
	"ShotType":"slimeball",
}
]